<svg xmlns="http://www.w3.org/2000/svg" xmlns:xlink="http://www.w3.org/1999/xlink" width="474.52" height="199.5" viewBox="0 0 474.52 199.5">
  <defs>
    <filter id="Path_22" x="156.52" y="8.5" width="318" height="191" filterUnits="userSpaceOnUse">
      <feOffset dy="3" input="SourceAlpha"/>
      <feGaussianBlur stdDeviation="3" result="blur"/>
      <feFlood flood-opacity="0.161"/>
      <feComposite operator="in" in2="blur"/>
      <feComposite in="SourceGraphic"/>
    </filter>
  </defs>
  <g id="dropdown" transform="translate(-937.48 -43.5)">
    <g transform="matrix(1, 0, 0, 1, 937.48, 43.5)" filter="url(#Path_22)">
      <path id="Path_22-2" data-name="Path 22" d="M0,0H300V173H0Z" transform="translate(165.52 14.5)" fill="#fff"/>
    </g>
    <text id="User-name-get-truncated-this-way-when_" data-name="User-name-get-truncated-this-way-when…" transform="translate(1119 88)" fill="#141823" font-size="14" font-family="Lato-Bold, Lato" font-weight="700"><tspan x="0" y="0">User-name-get-truncated-this-way-when…</tspan></text>
    <text id="useremail_something.com" data-name="useremail@something.com" transform="translate(1189 107)" fill="#141823" font-size="12" font-family="Lato-Regular, Lato"><tspan x="-70.185" y="0">useremail@something.com</tspan></text>
    <g id="Group_41" data-name="Group 41" transform="translate(1119.481 142)">
      <text id="Edit_profile" data-name="Edit profile" transform="translate(26)" fill="#141823" font-size="14" font-family="Lato-Regular, Lato"><tspan x="0" y="14">Edit profile</tspan></text>
      <path id="Path_360" data-name="Path 360" d="M15.539-12.727l-1.371,1.371-2.812-2.812,1.371-1.371a.715.715,0,0,1,.527-.211.715.715,0,0,1,.527.211l1.758,1.758a.715.715,0,0,1,.211.527A.715.715,0,0,1,15.539-12.727ZM2.25-5.062l8.3-8.3,2.813,2.813-8.3,8.3H2.25Z" transform="translate(0 18)" fill="#141823"/>
    </g>
    <g id="Group_53" data-name="Group 53" transform="translate(1119.481 169)">
      <text id="Settings" transform="translate(26)" fill="#141823" font-size="14" font-family="Lato-Regular, Lato"><tspan x="0" y="14">Settings</tspan></text>
      <path id="Path_361" data-name="Path 361" d="M7.137-7.137A2.54,2.54,0,0,0,9-6.363a2.54,2.54,0,0,0,1.863-.773A2.54,2.54,0,0,0,11.637-9a2.54,2.54,0,0,0-.773-1.863A2.54,2.54,0,0,0,9-11.637a2.54,2.54,0,0,0-1.863.773A2.54,2.54,0,0,0,6.363-9,2.54,2.54,0,0,0,7.137-7.137ZM14.59-8.262l1.582,1.23q.246.176.07.492l-1.512,2.6a.342.342,0,0,1-.457.141L12.41-4.535a6.361,6.361,0,0,1-1.266.738l-.281,1.969a.344.344,0,0,1-.352.316H7.488a.344.344,0,0,1-.352-.316L6.855-3.8A5.755,5.755,0,0,1,5.59-4.535L3.727-3.8a.342.342,0,0,1-.457-.141l-1.512-2.6q-.176-.316.07-.492L3.41-8.262A5.681,5.681,0,0,1,3.375-9a5.681,5.681,0,0,1,.035-.738l-1.582-1.23q-.246-.176-.07-.492l1.512-2.6a.342.342,0,0,1,.457-.141l1.863.738A6.361,6.361,0,0,1,6.855-14.2l.281-1.969a.344.344,0,0,1,.352-.316h3.023a.344.344,0,0,1,.352.316l.281,1.969a5.755,5.755,0,0,1,1.266.738l1.863-.738a.342.342,0,0,1,.457.141l1.512,2.6q.176.316-.07.492L14.59-9.738A5.681,5.681,0,0,1,14.625-9,5.681,5.681,0,0,1,14.59-8.262Z" transform="translate(0 18)" fill="#141823"/>
    </g>
    <g id="Group_54" data-name="Group 54" transform="translate(1119.481 196)">
      <text id="My_subscriptions" data-name="My subscriptions" transform="translate(26)" fill="#141823" font-size="14" font-family="Lato-Regular, Lato"><tspan x="0" y="14">My subscriptions</tspan></text>
      <path id="Path_362" data-name="Path 362" d="M11.988-6.012l-4.5-2.426v4.887ZM16.488-9v6.012a1.418,1.418,0,0,1-.439,1.037,1.418,1.418,0,0,1-1.037.439H2.988a1.418,1.418,0,0,1-1.037-.439,1.418,1.418,0,0,1-.439-1.037V-9a1.477,1.477,0,0,1,.439-1.055,1.392,1.392,0,0,1,1.037-.457H15.012a1.392,1.392,0,0,1,1.037.457A1.477,1.477,0,0,1,16.488-9ZM13.5-16.488v1.477h-9v-1.477Zm1.512,4.5H2.988V-13.5H15.012Z" transform="translate(0 18)" fill="#141823"/>
    </g>
    <path id="Path_20" data-name="Path 20" d="M0,0H299.5" transform="translate(1103.5 231)" fill="rgba(0,0,0,0)" stroke="#edeff0" stroke-width="1"/>
    <path id="Path_21" data-name="Path 21" d="M0,0H299.5" transform="translate(1103.5 126)" fill="rgba(0,0,0,0)" stroke="#edeff0" stroke-width="1"/>
    <g id="Group_4" data-name="Group 4" transform="translate(937.193 39)">
      <rect id="Rectangle_17" data-name="Rectangle 17" width="465" height="24" rx="5" transform="translate(0.288 4.5)" fill="#141823"/>
      <rect id="Rectangle_18" data-name="Rectangle 18" width="9" height="9" transform="translate(232.652 22.136) rotate(45)" fill="#141823"/>
    </g>
    <text id="User-name-get-truncated-this-way-when-is-too-long-_Display-onToolTip" data-name="User-name-get-truncated-this-way-when-is-too-long-&amp;Display-onToolTip" transform="translate(944.48 61)" fill="#fff" font-size="14" font-family="Lato-Regular, Lato"><tspan x="0" y="0">User-name-get-truncated-this-way-when-is-too-long-&amp;Display-onToolTip</tspan></text>
  </g>
</svg>
